<svg width="221" height="105" xmlns="http://www.w3.org/2000/svg">
 <defs>
  <filter id="svg_5_blur" x="-50%" y="-50%" width="200%" height="200%">
   <feGaussianBlur in="SourceGraphic" stdDeviation="0.1"/>
  </filter>
 </defs>
 <g>
  <title>Layer 1</title>
  <text fill="#ffffff" x="108.77364" y="30.58645" id="svg_5" stroke-width="0" font-size="24" font-family="'Brygada 1918'" text-anchor="start" xml:space="preserve" font-weight="normal" font-style="normal" stroke="#000" transform="matrix(3.50083 0 0 3.48932 -379.559 -23.65)" filter="url(#svg_5_blur)">UET</text>
  <text font-weight="normal" fill="#ffffff" stroke="#000" stroke-width="0" x="161.15442" y="81.92493" id="svg_6" font-size="24" font-family="'Brygada 1918'" text-anchor="start" xml:space="preserve">meet</text>
 </g>
</svg>